IterationMax = 200 
EscapeRadius = 20.000000 ER2 = 400.000000 

C plane : 
dSide = 1.500000 
PixelWidth = 0.003000 ; PixelHeight = 0.003000 
 CxMin = 0.240721 
 CxMax = 0.127451 
 CyMin = 0.420519 
 CyMax = 0.723373 

