InternalAngle  = 0.333333 
Cx  = -0.125980 
Cy  = 0.649518 
alfax  = -0.250490 
alfay  = 0.432730 
iHeight  = 2000 
PixelWidth  = 0.000500 
distorsion of image  = 1.000000 
iterMax = 100000 
iLostPixels = 0 
