InternalAngle  = 0.333333 
Cx  = -0.125218 
Cy  = 0.649519 
alfax  = -0.250109 
alfay  = 0.432950 
iHeight  = 2000 
PixelWidth  = 0.000500 
distorsion of image  = 1.000000 
iterMax = 100000 
iLostPixels = 0 
