This image shows part of dynamical z-plane of discrete dynamical system  
 map fc is a complex quadratic polynomial : fc(z) = z^2 + c  
 black points show critical orbit = orbit of critical point z = 0   
   
iPeriodParent = 1 
iPeriodChild = 3 
InternalAngle or rotational number = 0.333333 
InternalAngle distorsion ( epsilon)  = 0.000010 
   
parameter of map fc :   
Cx  = -0.125054 
Cy  = 0.649519 
   
alfa fixed point  
alfax  = -0.250027 
alfay  = 0.432997 
   
corners of dynamical z-plane rectangle : 
  ZxMin = -0.750027 
 ZxMax = 0.249973 
 ZyMin = -0.192003 
 ZyMax = 0.807997 
iHeight  = 2000 
PixelWidth  = 0.000500 
Number of computed critical orbit points  = iterMax = 100000000 
distorsion of image  = 1.000000 
Number of computed but clipped critical orbit points ( out of image so not drawn)  = iLostPixels = 0 
