 periods of c points on real axis of parameter plane = real slice of the Mandelbrot set  
 from Cmin = -1.98550560000000000005 to Cmax = -1.98538000000000000003 
 dC = CxMax-CxMin = 0.00012560000000000002 
 PixelWidth = 0.00000012560000000000 
 precision = 0.00000001256000000000 
 iMax = 100000 
 


 c = -1.98550560000000000005 ; periodS = 36640 
 c = -1.98550547440000000005 ; periodS = 80 
 c = -1.98550534880000000004 ; periodS = 80 
 c = -1.98550522320000000004 ; periodS = 80 
 c = -1.98550509760000000003 ; periodS = 40 
 c = -1.98550497200000000003 ; periodS = 40 
 c = -1.98550484640000000002 ; periodS = 40 
 c = -1.98550472080000000002 ; periodS = 40 
 c = -1.98550459520000000002 ; periodS = 40 
 c = -1.98550446960000000001 ; periodS = 40 
 c = -1.98550434400000000001 ; periodS = 40 
 c = -1.98550421840000000000 ; periodS = 40 
 c = -1.98550409280000000000 ; periodS = 40 
 c = -1.98550396719999999999 ; periodS = 40 
 c = -1.98550384159999999999 ; periodS = 40 
 c = -1.98550371599999999999 ; periodS = 40 
 c = -1.98550359039999999998 ; periodS = 20 
 c = -1.98550346479999999998 ; periodS = 20 
 c = -1.98550333919999999997 ; periodS = 20 
 c = -1.98550321359999999997 ; periodS = 20 
 c = -1.98550308799999999996 ; periodS = 20 
 c = -1.98550296239999999996 ; periodS = 20 
 c = -1.98550283679999999996 ; periodS = 20 
 c = -1.98550271119999999995 ; periodS = 20 
 c = -1.98550258559999999995 ; periodS = 20 
 c = -1.98550245999999999994 ; periodS = 20 
 c = -1.98550233439999999994 ; periodS = 20 
 c = -1.98550220879999999993 ; periodS = 20 
 c = -1.98550208319999999993 ; periodS = 20 
 c = -1.98550195759999999992 ; periodS = 20 
 c = -1.98550183199999999992 ; periodS = 20 
 c = -1.98550170639999999992 ; periodS = 20 
 c = -1.98550158079999999991 ; periodS = 20 
 c = -1.98550145519999999991 ; periodS = 20 
 c = -1.98550132959999999990 ; periodS = 20 
 c = -1.98550120399999999990 ; periodS = 20 
 c = -1.98550107839999999989 ; periodS = 20 
 c = -1.98550095279999999989 ; periodS = 20 
 c = -1.98550082719999999989 ; periodS = 20 
 c = -1.98550070159999999988 ; periodS = 20 
 c = -1.98550057599999999988 ; periodS = 20 
 c = -1.98550045039999999987 ; periodS = 20 
 c = -1.98550032479999999987 ; periodS = 20 
 c = -1.98550019919999999986 ; periodS = 20 
 c = -1.98550007359999999986 ; periodS = 20 
 c = -1.98549994799999999986 ; periodS = 20 
 c = -1.98549982239999999985 ; periodS = 20 
 c = -1.98549969679999999985 ; periodS = 20 
 c = -1.98549957119999999984 ; periodS = 20 
 c = -1.98549944559999999984 ; periodS = 20 
 c = -1.98549931999999999983 ; periodS = 20 
 c = -1.98549919439999999983 ; periodS = 20 
 c = -1.98549906879999999982 ; periodS = 20 
 c = -1.98549894319999999982 ; periodS = 20 
 c = -1.98549881759999999982 ; periodS = 20 
 c = -1.98549869199999999981 ; periodS = 20 
 c = -1.98549856639999999981 ; periodS = 20 
 c = -1.98549844079999999980 ; periodS = 20 
 c = -1.98549831519999999980 ; periodS = 20 
 c = -1.98549818959999999979 ; periodS = 20 
 c = -1.98549806399999999979 ; periodS = 20 
 c = -1.98549793839999999979 ; periodS = 20 
 c = -1.98549781279999999978 ; periodS = 20 
 c = -1.98549768719999999978 ; periodS = 20 
 c = -1.98549756159999999977 ; periodS = 20 
 c = -1.98549743599999999977 ; periodS = 20 
 c = -1.98549731039999999976 ; periodS = 20 
 c = -1.98549718479999999976 ; periodS = 20 
 c = -1.98549705919999999976 ; periodS = 20 
 c = -1.98549693359999999975 ; periodS = 20 
 c = -1.98549680799999999975 ; periodS = 10 
 c = -1.98549668239999999974 ; periodS = 10 
 c = -1.98549655679999999974 ; periodS = 10 
 c = -1.98549643119999999973 ; periodS = 10 
 c = -1.98549630559999999973 ; periodS = 10 
 c = -1.98549617999999999972 ; periodS = 10 
 c = -1.98549605439999999972 ; periodS = 10 
 c = -1.98549592879999999972 ; periodS = 10 
 c = -1.98549580319999999971 ; periodS = 10 
 c = -1.98549567759999999971 ; periodS = 10 
 c = -1.98549555199999999970 ; periodS = 10 
 c = -1.98549542639999999970 ; periodS = 10 
 c = -1.98549530079999999969 ; periodS = 10 
 c = -1.98549517519999999969 ; periodS = 10 
 c = -1.98549504959999999969 ; periodS = 10 
 c = -1.98549492399999999968 ; periodS = 10 
 c = -1.98549479839999999968 ; periodS = 10 
 c = -1.98549467279999999967 ; periodS = 10 
 c = -1.98549454719999999967 ; periodS = 10 
 c = -1.98549442159999999966 ; periodS = 10 
 c = -1.98549429599999999966 ; periodS = 10 
 c = -1.98549417039999999965 ; periodS = 10 
 c = -1.98549404479999999965 ; periodS = 10 
 c = -1.98549391919999999965 ; periodS = 10 
 c = -1.98549379359999999964 ; periodS = 10 
 c = -1.98549366799999999964 ; periodS = 10 
 c = -1.98549354239999999963 ; periodS = 10 
 c = -1.98549341679999999963 ; periodS = 10 
 c = -1.98549329119999999962 ; periodS = 10 
 c = -1.98549316559999999962 ; periodS = 10 
 c = -1.98549303999999999962 ; periodS = 10 
 c = -1.98549291439999999961 ; periodS = 10 
 c = -1.98549278879999999961 ; periodS = 10 
 c = -1.98549266319999999960 ; periodS = 10 
 c = -1.98549253759999999960 ; periodS = 10 
 c = -1.98549241199999999959 ; periodS = 10 
 c = -1.98549228639999999959 ; periodS = 10 
 c = -1.98549216079999999959 ; periodS = 10 
 c = -1.98549203519999999958 ; periodS = 10 
 c = -1.98549190959999999958 ; periodS = 10 
 c = -1.98549178399999999957 ; periodS = 10 
 c = -1.98549165839999999957 ; periodS = 10 
 c = -1.98549153279999999956 ; periodS = 10 
 c = -1.98549140719999999956 ; periodS = 10 
 c = -1.98549128159999999955 ; periodS = 10 
 c = -1.98549115599999999955 ; periodS = 10 
 c = -1.98549103039999999955 ; periodS = 10 
 c = -1.98549090479999999954 ; periodS = 10 
 c = -1.98549077919999999954 ; periodS = 10 
 c = -1.98549065359999999953 ; periodS = 10 
 c = -1.98549052799999999953 ; periodS = 10 
 c = -1.98549040239999999952 ; periodS = 10 
 c = -1.98549027679999999952 ; periodS = 10 
 c = -1.98549015119999999952 ; periodS = 10 
 c = -1.98549002559999999951 ; periodS = 10 
 c = -1.98548989999999999951 ; periodS = 10 
 c = -1.98548977439999999950 ; periodS = 10 
 c = -1.98548964879999999950 ; periodS = 10 
 c = -1.98548952319999999949 ; periodS = 10 
 c = -1.98548939759999999949 ; periodS = 10 
 c = -1.98548927199999999949 ; periodS = 10 
 c = -1.98548914639999999948 ; periodS = 10 
 c = -1.98548902079999999948 ; periodS = 10 
 c = -1.98548889519999999947 ; periodS = 10 
 c = -1.98548876959999999947 ; periodS = 10 
 c = -1.98548864399999999946 ; periodS = 10 
 c = -1.98548851839999999946 ; periodS = 10 
 c = -1.98548839279999999945 ; periodS = 10 
 c = -1.98548826719999999945 ; periodS = 10 
 c = -1.98548814159999999945 ; periodS = 10 
 c = -1.98548801599999999944 ; periodS = 10 
 c = -1.98548789039999999944 ; periodS = 10 
 c = -1.98548776479999999943 ; periodS = 10 
 c = -1.98548763919999999943 ; periodS = 10 
 c = -1.98548751359999999942 ; periodS = 10 
 c = -1.98548738799999999942 ; periodS = 10 
 c = -1.98548726239999999942 ; periodS = 10 
 c = -1.98548713679999999941 ; periodS = 10 
 c = -1.98548701119999999941 ; periodS = 10 
 c = -1.98548688559999999940 ; periodS = 10 
 c = -1.98548675999999999940 ; periodS = 10 
 c = -1.98548663439999999939 ; periodS = 10 
 c = -1.98548650879999999939 ; periodS = 10 
 c = -1.98548638319999999938 ; periodS = 10 
 c = -1.98548625759999999938 ; periodS = 10 
 c = -1.98548613199999999938 ; periodS = 10 
 c = -1.98548600639999999937 ; periodS = 10 
 c = -1.98548588079999999937 ; periodS = 10 
 c = -1.98548575519999999936 ; periodS = 10 
 c = -1.98548562959999999936 ; periodS = 10 
 c = -1.98548550399999999935 ; periodS = 10 
 c = -1.98548537839999999935 ; periodS = 10 
 c = -1.98548525279999999935 ; periodS = 10 
 c = -1.98548512719999999934 ; periodS = 10 
 c = -1.98548500159999999934 ; periodS = 10 
 c = -1.98548487599999999933 ; periodS = 10 
 c = -1.98548475039999999933 ; periodS = 10 
 c = -1.98548462479999999932 ; periodS = 10 
 c = -1.98548449919999999932 ; periodS = 10 
 c = -1.98548437359999999932 ; periodS = 10 
 c = -1.98548424799999999931 ; periodS = 10 
 c = -1.98548412239999999931 ; periodS = 10 
 c = -1.98548399679999999930 ; periodS = 10 
 c = -1.98548387119999999930 ; periodS = 10 
 c = -1.98548374559999999929 ; periodS = 10 
 c = -1.98548361999999999929 ; periodS = 10 
 c = -1.98548349439999999928 ; periodS = 10 
 c = -1.98548336879999999928 ; periodS = 10 
 c = -1.98548324319999999928 ; periodS = 10 
 c = -1.98548311759999999927 ; periodS = 10 
 c = -1.98548299199999999927 ; periodS = 10 
 c = -1.98548286639999999926 ; periodS = 10 
 c = -1.98548274079999999926 ; periodS = 10 
 c = -1.98548261519999999925 ; periodS = 10 
 c = -1.98548248959999999925 ; periodS = 10 
 c = -1.98548236399999999925 ; periodS = 10 
 c = -1.98548223839999999924 ; periodS = 10 
 c = -1.98548211279999999924 ; periodS = 10 
 c = -1.98548198719999999923 ; periodS = 10 
 c = -1.98548186159999999923 ; periodS = 10 
 c = -1.98548173599999999922 ; periodS = 10 
 c = -1.98548161039999999922 ; periodS = 10 
 c = -1.98548148479999999922 ; periodS = 10 
 c = -1.98548135919999999921 ; periodS = 10 
 c = -1.98548123359999999921 ; periodS = 10 
 c = -1.98548110799999999920 ; periodS = 10 
 c = -1.98548098239999999920 ; periodS = 10 
 c = -1.98548085679999999919 ; periodS = 10 
 c = -1.98548073119999999919 ; periodS = 10 
 c = -1.98548060559999999918 ; periodS = 10 
 c = -1.98548047999999999918 ; periodS = 10 
 c = -1.98548035439999999918 ; periodS = 10 
 c = -1.98548022879999999917 ; periodS = 10 
 c = -1.98548010319999999917 ; periodS = 10 
 c = -1.98547997759999999916 ; periodS = 10 
 c = -1.98547985199999999916 ; periodS = 10 
 c = -1.98547972639999999915 ; periodS = 10 
 c = -1.98547960079999999915 ; periodS = 10 
 c = -1.98547947519999999915 ; periodS = 10 
 c = -1.98547934959999999914 ; periodS = 10 
 c = -1.98547922399999999914 ; periodS = 10 
 c = -1.98547909839999999913 ; periodS = 10 
 c = -1.98547897279999999913 ; periodS = 10 
 c = -1.98547884719999999912 ; periodS = 10 
 c = -1.98547872159999999912 ; periodS = 10 
 c = -1.98547859599999999912 ; periodS = 10 
 c = -1.98547847039999999911 ; periodS = 10 
 c = -1.98547834479999999911 ; periodS = 10 
 c = -1.98547821919999999910 ; periodS = 10 
 c = -1.98547809359999999910 ; periodS = 10 
 c = -1.98547796799999999909 ; periodS = 10 
 c = -1.98547784239999999909 ; periodS = 10 
 c = -1.98547771679999999908 ; periodS = 10 
 c = -1.98547759119999999908 ; periodS = 10 
 c = -1.98547746559999999908 ; periodS = 10 
 c = -1.98547733999999999907 ; periodS = 10 
 c = -1.98547721439999999907 ; periodS = 10 
 c = -1.98547708879999999906 ; periodS = 10 
 c = -1.98547696319999999906 ; periodS = 10 
 c = -1.98547683759999999905 ; periodS = 10 
 c = -1.98547671199999999905 ; periodS = 10 
 c = -1.98547658639999999905 ; periodS = 10 
 c = -1.98547646079999999904 ; periodS = 10 
 c = -1.98547633519999999904 ; periodS = 10 
 c = -1.98547620959999999903 ; periodS = 10 
 c = -1.98547608399999999903 ; periodS = 10 
 c = -1.98547595839999999902 ; periodS = 10 
 c = -1.98547583279999999902 ; periodS = 10 
 c = -1.98547570719999999901 ; periodS = 10 
 c = -1.98547558159999999901 ; periodS = 10 
 c = -1.98547545599999999901 ; periodS = 10 
 c = -1.98547533039999999900 ; periodS = 10 
 c = -1.98547520479999999900 ; periodS = 10 
 c = -1.98547507919999999899 ; periodS = 10 
 c = -1.98547495359999999899 ; periodS = 10 
 c = -1.98547482799999999898 ; periodS = 10 
 c = -1.98547470239999999898 ; periodS = 10 
 c = -1.98547457679999999898 ; periodS = 10 
 c = -1.98547445119999999897 ; periodS = 10 
 c = -1.98547432559999999897 ; periodS = 10 
 c = -1.98547419999999999896 ; periodS = 10 
 c = -1.98547407439999999896 ; periodS = 10 
 c = -1.98547394879999999895 ; periodS = 10 
 c = -1.98547382319999999895 ; periodS = 10 
 c = -1.98547369759999999895 ; periodS = 10 
 c = -1.98547357199999999894 ; periodS = 10 
 c = -1.98547344639999999894 ; periodS = 10 
 c = -1.98547332079999999893 ; periodS = 10 
 c = -1.98547319519999999893 ; periodS = 10 
 c = -1.98547306959999999892 ; periodS = 10 
 c = -1.98547294399999999892 ; periodS = 10 
 c = -1.98547281839999999891 ; periodS = 10 
 c = -1.98547269279999999891 ; periodS = 10 
 c = -1.98547256719999999891 ; periodS = 10 
 c = -1.98547244159999999890 ; periodS = 10 
 c = -1.98547231599999999890 ; periodS = 10 
 c = -1.98547219039999999889 ; periodS = 10 
 c = -1.98547206479999999889 ; periodS = 10 
 c = -1.98547193919999999888 ; periodS = 10 
 c = -1.98547181359999999888 ; periodS = 10 
 c = -1.98547168799999999888 ; periodS = 10 
 c = -1.98547156239999999887 ; periodS = 10 
 c = -1.98547143679999999887 ; periodS = 10 
 c = -1.98547131119999999886 ; periodS = 10 
 c = -1.98547118559999999886 ; periodS = 10 
 c = -1.98547105999999999885 ; periodS = 10 
 c = -1.98547093439999999885 ; periodS = 10 
 c = -1.98547080879999999885 ; periodS = 10 
 c = -1.98547068319999999884 ; periodS = 10 
 c = -1.98547055759999999884 ; periodS = 10 
 c = -1.98547043199999999883 ; periodS = 10 
 c = -1.98547030639999999883 ; periodS = 10 
 c = -1.98547018079999999882 ; periodS = 10 
 c = -1.98547005519999999882 ; periodS = 10 
 c = -1.98546992959999999881 ; periodS = 10 
 c = -1.98546980399999999881 ; periodS = 10 
 c = -1.98546967839999999881 ; periodS = 10 
 c = -1.98546955279999999880 ; periodS = 10 
 c = -1.98546942719999999880 ; periodS = 10 
 c = -1.98546930159999999879 ; periodS = 10 
 c = -1.98546917599999999879 ; periodS = 10 
 c = -1.98546905039999999878 ; periodS = 10 
 c = -1.98546892479999999878 ; periodS = 10 
 c = -1.98546879919999999878 ; periodS = 10 
 c = -1.98546867359999999877 ; periodS = 10 
 c = -1.98546854799999999877 ; periodS = 10 
 c = -1.98546842239999999876 ; periodS = 10 
 c = -1.98546829679999999876 ; periodS = 10 
 c = -1.98546817119999999875 ; periodS = 10 
 c = -1.98546804559999999875 ; periodS = 10 
 c = -1.98546791999999999874 ; periodS = 10 
 c = -1.98546779439999999874 ; periodS = 10 
 c = -1.98546766879999999874 ; periodS = 5 
 c = -1.98546754319999999873 ; periodS = 5 
 c = -1.98546741759999999873 ; periodS = 5 
 c = -1.98546729199999999872 ; periodS = 5 
 c = -1.98546716639999999872 ; periodS = 5 
 c = -1.98546704079999999871 ; periodS = 5 
 c = -1.98546691519999999871 ; periodS = 5 
 c = -1.98546678959999999871 ; periodS = 5 
 c = -1.98546666399999999870 ; periodS = 5 
 c = -1.98546653839999999870 ; periodS = 5 
 c = -1.98546641279999999869 ; periodS = 5 
 c = -1.98546628719999999869 ; periodS = 5 
 c = -1.98546616159999999868 ; periodS = 5 
 c = -1.98546603599999999868 ; periodS = 5 
 c = -1.98546591039999999868 ; periodS = 5 
 c = -1.98546578479999999867 ; periodS = 5 
 c = -1.98546565919999999867 ; periodS = 5 
 c = -1.98546553359999999866 ; periodS = 5 
 c = -1.98546540799999999866 ; periodS = 5 
 c = -1.98546528239999999865 ; periodS = 5 
 c = -1.98546515679999999865 ; periodS = 5 
 c = -1.98546503119999999864 ; periodS = 5 
 c = -1.98546490559999999864 ; periodS = 5 
 c = -1.98546477999999999864 ; periodS = 5 
 c = -1.98546465439999999863 ; periodS = 5 
 c = -1.98546452879999999863 ; periodS = 5 
 c = -1.98546440319999999862 ; periodS = 5 
 c = -1.98546427759999999862 ; periodS = 5 
 c = -1.98546415199999999861 ; periodS = 5 
 c = -1.98546402639999999861 ; periodS = 5 
 c = -1.98546390079999999861 ; periodS = 5 
 c = -1.98546377519999999860 ; periodS = 5 
 c = -1.98546364959999999860 ; periodS = 5 
 c = -1.98546352399999999859 ; periodS = 5 
 c = -1.98546339839999999859 ; periodS = 5 
 c = -1.98546327279999999858 ; periodS = 5 
 c = -1.98546314719999999858 ; periodS = 5 
 c = -1.98546302159999999858 ; periodS = 5 
 c = -1.98546289599999999857 ; periodS = 5 
 c = -1.98546277039999999857 ; periodS = 5 
 c = -1.98546264479999999856 ; periodS = 5 
 c = -1.98546251919999999856 ; periodS = 5 
 c = -1.98546239359999999855 ; periodS = 5 
 c = -1.98546226799999999855 ; periodS = 5 
 c = -1.98546214239999999854 ; periodS = 5 
 c = -1.98546201679999999854 ; periodS = 5 
 c = -1.98546189119999999854 ; periodS = 5 
 c = -1.98546176559999999853 ; periodS = 5 
 c = -1.98546163999999999853 ; periodS = 5 
 c = -1.98546151439999999852 ; periodS = 5 
 c = -1.98546138879999999852 ; periodS = 5 
 c = -1.98546126319999999851 ; periodS = 5 
 c = -1.98546113759999999851 ; periodS = 5 
 c = -1.98546101199999999851 ; periodS = 5 
 c = -1.98546088639999999850 ; periodS = 5 
 c = -1.98546076079999999850 ; periodS = 5 
 c = -1.98546063519999999849 ; periodS = 5 
 c = -1.98546050959999999849 ; periodS = 5 
 c = -1.98546038399999999848 ; periodS = 5 
 c = -1.98546025839999999848 ; periodS = 5 
 c = -1.98546013279999999847 ; periodS = 5 
 c = -1.98546000719999999847 ; periodS = 5 
 c = -1.98545988159999999847 ; periodS = 5 
 c = -1.98545975599999999846 ; periodS = 5 
 c = -1.98545963039999999846 ; periodS = 5 
 c = -1.98545950479999999845 ; periodS = 5 
 c = -1.98545937919999999845 ; periodS = 5 
 c = -1.98545925359999999844 ; periodS = 5 
 c = -1.98545912799999999844 ; periodS = 5 
 c = -1.98545900239999999844 ; periodS = 5 
 c = -1.98545887679999999843 ; periodS = 5 
 c = -1.98545875119999999843 ; periodS = 5 
 c = -1.98545862559999999842 ; periodS = 5 
 c = -1.98545849999999999842 ; periodS = 5 
 c = -1.98545837439999999841 ; periodS = 5 
 c = -1.98545824879999999841 ; periodS = 5 
 c = -1.98545812319999999841 ; periodS = 5 
 c = -1.98545799759999999840 ; periodS = 5 
 c = -1.98545787199999999840 ; periodS = 5 
 c = -1.98545774639999999839 ; periodS = 5 
 c = -1.98545762079999999839 ; periodS = 5 
 c = -1.98545749519999999838 ; periodS = 5 
 c = -1.98545736959999999838 ; periodS = 5 
 c = -1.98545724399999999837 ; periodS = 5 
 c = -1.98545711839999999837 ; periodS = 5 
 c = -1.98545699279999999837 ; periodS = 5 
 c = -1.98545686719999999836 ; periodS = 5 
 c = -1.98545674159999999836 ; periodS = 5 
 c = -1.98545661599999999835 ; periodS = 5 
 c = -1.98545649039999999835 ; periodS = 5 
 c = -1.98545636479999999834 ; periodS = 5 
 c = -1.98545623919999999834 ; periodS = 5 
 c = -1.98545611359999999834 ; periodS = 5 
 c = -1.98545598799999999833 ; periodS = 5 
 c = -1.98545586239999999833 ; periodS = 5 
 c = -1.98545573679999999832 ; periodS = 5 
 c = -1.98545561119999999832 ; periodS = 5 
 c = -1.98545548559999999831 ; periodS = 5 
 c = -1.98545535999999999831 ; periodS = 5 
 c = -1.98545523439999999831 ; periodS = 5 
 c = -1.98545510879999999830 ; periodS = 5 
 c = -1.98545498319999999830 ; periodS = 5 
 c = -1.98545485759999999829 ; periodS = 5 
 c = -1.98545473199999999829 ; periodS = 5 
 c = -1.98545460639999999828 ; periodS = 5 
 c = -1.98545448079999999828 ; periodS = 5 
 c = -1.98545435519999999827 ; periodS = 5 
 c = -1.98545422959999999827 ; periodS = 5 
 c = -1.98545410399999999827 ; periodS = 5 
 c = -1.98545397839999999826 ; periodS = 5 
 c = -1.98545385279999999826 ; periodS = 5 
 c = -1.98545372719999999825 ; periodS = 5 
 c = -1.98545360159999999825 ; periodS = 5 
 c = -1.98545347599999999824 ; periodS = 5 
 c = -1.98545335039999999824 ; periodS = 5 
 c = -1.98545322479999999824 ; periodS = 5 
 c = -1.98545309919999999823 ; periodS = 5 
 c = -1.98545297359999999823 ; periodS = 5 
 c = -1.98545284799999999822 ; periodS = 5 
 c = -1.98545272239999999822 ; periodS = 5 
 c = -1.98545259679999999821 ; periodS = 5 
 c = -1.98545247119999999821 ; periodS = 5 
 c = -1.98545234559999999821 ; periodS = 5 
 c = -1.98545221999999999820 ; periodS = 5 
 c = -1.98545209439999999820 ; periodS = 5 
 c = -1.98545196879999999819 ; periodS = 5 
 c = -1.98545184319999999819 ; periodS = 5 
 c = -1.98545171759999999818 ; periodS = 5 
 c = -1.98545159199999999818 ; periodS = 5 
 c = -1.98545146639999999817 ; periodS = 5 
 c = -1.98545134079999999817 ; periodS = 5 
 c = -1.98545121519999999817 ; periodS = 5 
 c = -1.98545108959999999816 ; periodS = 5 
 c = -1.98545096399999999816 ; periodS = 5 
 c = -1.98545083839999999815 ; periodS = 5 
 c = -1.98545071279999999815 ; periodS = 5 
 c = -1.98545058719999999814 ; periodS = 5 
 c = -1.98545046159999999814 ; periodS = 5 
 c = -1.98545033599999999814 ; periodS = 5 
 c = -1.98545021039999999813 ; periodS = 5 
 c = -1.98545008479999999813 ; periodS = 5 
 c = -1.98544995919999999812 ; periodS = 5 
 c = -1.98544983359999999812 ; periodS = 5 
 c = -1.98544970799999999811 ; periodS = 5 
 c = -1.98544958239999999811 ; periodS = 5 
 c = -1.98544945679999999810 ; periodS = 5 
 c = -1.98544933119999999810 ; periodS = 5 
 c = -1.98544920559999999810 ; periodS = 5 
 c = -1.98544907999999999809 ; periodS = 5 
 c = -1.98544895439999999809 ; periodS = 5 
 c = -1.98544882879999999808 ; periodS = 5 
 c = -1.98544870319999999808 ; periodS = 5 
 c = -1.98544857759999999807 ; periodS = 5 
 c = -1.98544845199999999807 ; periodS = 5 
 c = -1.98544832639999999807 ; periodS = 5 
 c = -1.98544820079999999806 ; periodS = 5 
 c = -1.98544807519999999806 ; periodS = 5 
 c = -1.98544794959999999805 ; periodS = 5 
 c = -1.98544782399999999805 ; periodS = 5 
 c = -1.98544769839999999804 ; periodS = 5 
 c = -1.98544757279999999804 ; periodS = 5 
 c = -1.98544744719999999804 ; periodS = 5 
 c = -1.98544732159999999803 ; periodS = 5 
 c = -1.98544719599999999803 ; periodS = 5 
 c = -1.98544707039999999802 ; periodS = 5 
 c = -1.98544694479999999802 ; periodS = 5 
 c = -1.98544681919999999801 ; periodS = 5 
 c = -1.98544669359999999801 ; periodS = 5 
 c = -1.98544656799999999800 ; periodS = 5 
 c = -1.98544644239999999800 ; periodS = 5 
 c = -1.98544631679999999800 ; periodS = 5 
 c = -1.98544619119999999799 ; periodS = 5 
 c = -1.98544606559999999799 ; periodS = 5 
 c = -1.98544593999999999798 ; periodS = 5 
 c = -1.98544581439999999798 ; periodS = 5 
 c = -1.98544568879999999797 ; periodS = 5 
 c = -1.98544556319999999797 ; periodS = 5 
 c = -1.98544543759999999797 ; periodS = 5 
 c = -1.98544531199999999796 ; periodS = 5 
 c = -1.98544518639999999796 ; periodS = 5 
 c = -1.98544506079999999795 ; periodS = 5 
 c = -1.98544493519999999795 ; periodS = 5 
 c = -1.98544480959999999794 ; periodS = 5 
 c = -1.98544468399999999794 ; periodS = 5 
 c = -1.98544455839999999794 ; periodS = 5 
 c = -1.98544443279999999793 ; periodS = 5 
 c = -1.98544430719999999793 ; periodS = 5 
 c = -1.98544418159999999792 ; periodS = 5 
 c = -1.98544405599999999792 ; periodS = 5 
 c = -1.98544393039999999791 ; periodS = 5 
 c = -1.98544380479999999791 ; periodS = 5 
 c = -1.98544367919999999790 ; periodS = 5 
 c = -1.98544355359999999790 ; periodS = 5 
 c = -1.98544342799999999790 ; periodS = 5 
 c = -1.98544330239999999789 ; periodS = 5 
 c = -1.98544317679999999789 ; periodS = 5 
 c = -1.98544305119999999788 ; periodS = 5 
 c = -1.98544292559999999788 ; periodS = 5 
 c = -1.98544279999999999787 ; periodS = 5 
 c = -1.98544267439999999787 ; periodS = 5 
 c = -1.98544254879999999787 ; periodS = 5 
 c = -1.98544242319999999786 ; periodS = 5 
 c = -1.98544229759999999786 ; periodS = 5 
 c = -1.98544217199999999785 ; periodS = 5 
 c = -1.98544204639999999785 ; periodS = 5 
 c = -1.98544192079999999784 ; periodS = 5 
 c = -1.98544179519999999784 ; periodS = 5 
 c = -1.98544166959999999783 ; periodS = 5 
 c = -1.98544154399999999783 ; periodS = 5 
 c = -1.98544141839999999783 ; periodS = 5 
 c = -1.98544129279999999782 ; periodS = 5 
 c = -1.98544116719999999782 ; periodS = 5 
 c = -1.98544104159999999781 ; periodS = 5 
 c = -1.98544091599999999781 ; periodS = 5 
 c = -1.98544079039999999780 ; periodS = 5 
 c = -1.98544066479999999780 ; periodS = 5 
 c = -1.98544053919999999780 ; periodS = 5 
 c = -1.98544041359999999779 ; periodS = 5 
 c = -1.98544028799999999779 ; periodS = 5 
 c = -1.98544016239999999778 ; periodS = 5 
 c = -1.98544003679999999778 ; periodS = 5 
 c = -1.98543991119999999777 ; periodS = 5 
 c = -1.98543978559999999777 ; periodS = 5 
 c = -1.98543965999999999777 ; periodS = 5 
 c = -1.98543953439999999776 ; periodS = 5 
 c = -1.98543940879999999776 ; periodS = 5 
 c = -1.98543928319999999775 ; periodS = 5 
 c = -1.98543915759999999775 ; periodS = 5 
 c = -1.98543903199999999774 ; periodS = 5 
 c = -1.98543890639999999774 ; periodS = 5 
 c = -1.98543878079999999773 ; periodS = 5 
 c = -1.98543865519999999773 ; periodS = 5 
 c = -1.98543852959999999773 ; periodS = 5 
 c = -1.98543840399999999772 ; periodS = 5 
 c = -1.98543827839999999772 ; periodS = 5 
 c = -1.98543815279999999771 ; periodS = 5 
 c = -1.98543802719999999771 ; periodS = 5 
 c = -1.98543790159999999770 ; periodS = 5 
 c = -1.98543777599999999770 ; periodS = 5 
 c = -1.98543765039999999770 ; periodS = 5 
 c = -1.98543752479999999769 ; periodS = 5 
 c = -1.98543739919999999769 ; periodS = 5 
 c = -1.98543727359999999768 ; periodS = 5 
 c = -1.98543714799999999768 ; periodS = 5 
 c = -1.98543702239999999767 ; periodS = 5 
 c = -1.98543689679999999767 ; periodS = 5 
 c = -1.98543677119999999767 ; periodS = 5 
 c = -1.98543664559999999766 ; periodS = 5 
 c = -1.98543651999999999766 ; periodS = 5 
 c = -1.98543639439999999765 ; periodS = 5 
 c = -1.98543626879999999765 ; periodS = 5 
 c = -1.98543614319999999764 ; periodS = 5 
 c = -1.98543601759999999764 ; periodS = 5 
 c = -1.98543589199999999763 ; periodS = 5 
 c = -1.98543576639999999763 ; periodS = 5 
 c = -1.98543564079999999763 ; periodS = 5 
 c = -1.98543551519999999762 ; periodS = 5 
 c = -1.98543538959999999762 ; periodS = 5 
 c = -1.98543526399999999761 ; periodS = 5 
 c = -1.98543513839999999761 ; periodS = 5 
 c = -1.98543501279999999760 ; periodS = 5 
 c = -1.98543488719999999760 ; periodS = 5 
 c = -1.98543476159999999760 ; periodS = 5 
 c = -1.98543463599999999759 ; periodS = 5 
 c = -1.98543451039999999759 ; periodS = 5 
 c = -1.98543438479999999758 ; periodS = 5 
 c = -1.98543425919999999758 ; periodS = 5 
 c = -1.98543413359999999757 ; periodS = 5 
 c = -1.98543400799999999757 ; periodS = 5 
 c = -1.98543388239999999756 ; periodS = 5 
 c = -1.98543375679999999756 ; periodS = 5 
 c = -1.98543363119999999756 ; periodS = 5 
 c = -1.98543350559999999755 ; periodS = 5 
 c = -1.98543337999999999755 ; periodS = 5 
 c = -1.98543325439999999754 ; periodS = 5 
 c = -1.98543312879999999754 ; periodS = 5 
 c = -1.98543300319999999753 ; periodS = 5 
 c = -1.98543287759999999753 ; periodS = 5 
 c = -1.98543275199999999753 ; periodS = 5 
 c = -1.98543262639999999752 ; periodS = 5 
 c = -1.98543250079999999752 ; periodS = 5 
 c = -1.98543237519999999751 ; periodS = 5 
 c = -1.98543224959999999751 ; periodS = 5 
 c = -1.98543212399999999750 ; periodS = 5 
 c = -1.98543199839999999750 ; periodS = 5 
 c = -1.98543187279999999750 ; periodS = 5 
 c = -1.98543174719999999749 ; periodS = 5 
 c = -1.98543162159999999749 ; periodS = 5 
 c = -1.98543149599999999748 ; periodS = 5 
 c = -1.98543137039999999748 ; periodS = 5 
 c = -1.98543124479999999747 ; periodS = 5 
 c = -1.98543111919999999747 ; periodS = 5 
 c = -1.98543099359999999746 ; periodS = 5 
 c = -1.98543086799999999746 ; periodS = 5 
 c = -1.98543074239999999746 ; periodS = 5 
 c = -1.98543061679999999745 ; periodS = 5 
 c = -1.98543049119999999745 ; periodS = 5 
 c = -1.98543036559999999744 ; periodS = 5 
 c = -1.98543023999999999744 ; periodS = 5 
 c = -1.98543011439999999743 ; periodS = 5 
 c = -1.98542998879999999743 ; periodS = 5 
 c = -1.98542986319999999743 ; periodS = 5 
 c = -1.98542973759999999742 ; periodS = 5 
 c = -1.98542961199999999742 ; periodS = 5 
 c = -1.98542948639999999741 ; periodS = 5 
 c = -1.98542936079999999741 ; periodS = 5 
 c = -1.98542923519999999740 ; periodS = 5 
 c = -1.98542910959999999740 ; periodS = 5 
 c = -1.98542898399999999740 ; periodS = 5 
 c = -1.98542885839999999739 ; periodS = 5 
 c = -1.98542873279999999739 ; periodS = 5 
 c = -1.98542860719999999738 ; periodS = 5 
 c = -1.98542848159999999738 ; periodS = 5 
 c = -1.98542835599999999737 ; periodS = 5 
 c = -1.98542823039999999737 ; periodS = 5 
 c = -1.98542810479999999736 ; periodS = 5 
 c = -1.98542797919999999736 ; periodS = 5 
 c = -1.98542785359999999736 ; periodS = 5 
 c = -1.98542772799999999735 ; periodS = 5 
 c = -1.98542760239999999735 ; periodS = 5 
 c = -1.98542747679999999734 ; periodS = 5 
 c = -1.98542735119999999734 ; periodS = 5 
 c = -1.98542722559999999733 ; periodS = 5 
 c = -1.98542709999999999733 ; periodS = 5 
 c = -1.98542697439999999733 ; periodS = 5 
 c = -1.98542684879999999732 ; periodS = 5 
 c = -1.98542672319999999732 ; periodS = 5 
 c = -1.98542659759999999731 ; periodS = 5 
 c = -1.98542647199999999731 ; periodS = 5 
 c = -1.98542634639999999730 ; periodS = 5 
 c = -1.98542622079999999730 ; periodS = 5 
 c = -1.98542609519999999730 ; periodS = 5 
 c = -1.98542596959999999729 ; periodS = 5 
 c = -1.98542584399999999729 ; periodS = 5 
 c = -1.98542571839999999728 ; periodS = 5 
 c = -1.98542559279999999728 ; periodS = 5 
 c = -1.98542546719999999727 ; periodS = 5 
 c = -1.98542534159999999727 ; periodS = 5 
 c = -1.98542521599999999726 ; periodS = 5 
 c = -1.98542509039999999726 ; periodS = 5 
 c = -1.98542496479999999726 ; periodS = 5 
 c = -1.98542483919999999725 ; periodS = 5 
 c = -1.98542471359999999725 ; periodS = 5 
 c = -1.98542458799999999724 ; periodS = 5 
 c = -1.98542446239999999724 ; periodS = 5 
 c = -1.98542433679999999723 ; periodS = 5 
 c = -1.98542421119999999723 ; periodS = 5 
 c = -1.98542408559999999723 ; periodS = 5 
 c = -1.98542395999999999722 ; periodS = 5 
 c = -1.98542383439999999722 ; periodS = 5 
 c = -1.98542370879999999721 ; periodS = 5 
 c = -1.98542358319999999721 ; periodS = 5 
 c = -1.98542345759999999720 ; periodS = 5 
 c = -1.98542333199999999720 ; periodS = 5 
 c = -1.98542320639999999719 ; periodS = 5 
 c = -1.98542308079999999719 ; periodS = 5 
 c = -1.98542295519999999719 ; periodS = 5 
 c = -1.98542282959999999718 ; periodS = 5 
 c = -1.98542270399999999718 ; periodS = 5 
 c = -1.98542257839999999717 ; periodS = 5 
 c = -1.98542245279999999717 ; periodS = 5 
 c = -1.98542232719999999716 ; periodS = 5 
 c = -1.98542220159999999716 ; periodS = 5 
 c = -1.98542207599999999716 ; periodS = 5 
 c = -1.98542195039999999715 ; periodS = 5 
 c = -1.98542182479999999715 ; periodS = 5 
 c = -1.98542169919999999714 ; periodS = 5 
 c = -1.98542157359999999714 ; periodS = 5 
 c = -1.98542144799999999713 ; periodS = 5 
 c = -1.98542132239999999713 ; periodS = 5 
 c = -1.98542119679999999713 ; periodS = 5 
 c = -1.98542107119999999712 ; periodS = 5 
 c = -1.98542094559999999712 ; periodS = 5 
 c = -1.98542081999999999711 ; periodS = 5 
 c = -1.98542069439999999711 ; periodS = 5 
 c = -1.98542056879999999710 ; periodS = 5 
 c = -1.98542044319999999710 ; periodS = 5 
 c = -1.98542031759999999709 ; periodS = 5 
 c = -1.98542019199999999709 ; periodS = 5 
 c = -1.98542006639999999709 ; periodS = 5 
 c = -1.98541994079999999708 ; periodS = 5 
 c = -1.98541981519999999708 ; periodS = 5 
 c = -1.98541968959999999707 ; periodS = 5 
 c = -1.98541956399999999707 ; periodS = 5 
 c = -1.98541943839999999706 ; periodS = 5 
 c = -1.98541931279999999706 ; periodS = 5 
 c = -1.98541918719999999706 ; periodS = 5 
 c = -1.98541906159999999705 ; periodS = 5 
 c = -1.98541893599999999705 ; periodS = 5 
 c = -1.98541881039999999704 ; periodS = 5 
 c = -1.98541868479999999704 ; periodS = 5 
 c = -1.98541855919999999703 ; periodS = 5 
 c = -1.98541843359999999703 ; periodS = 5 
 c = -1.98541830799999999703 ; periodS = 5 
 c = -1.98541818239999999702 ; periodS = 5 
 c = -1.98541805679999999702 ; periodS = 5 
 c = -1.98541793119999999701 ; periodS = 5 
 c = -1.98541780559999999701 ; periodS = 5 
 c = -1.98541767999999999700 ; periodS = 5 
 c = -1.98541755439999999700 ; periodS = 5 
 c = -1.98541742879999999699 ; periodS = 5 
 c = -1.98541730319999999699 ; periodS = 5 
 c = -1.98541717759999999699 ; periodS = 5 
 c = -1.98541705199999999698 ; periodS = 5 
 c = -1.98541692639999999698 ; periodS = 5 
 c = -1.98541680079999999697 ; periodS = 5 
 c = -1.98541667519999999697 ; periodS = 5 
 c = -1.98541654959999999696 ; periodS = 5 
 c = -1.98541642399999999696 ; periodS = 5 
 c = -1.98541629839999999696 ; periodS = 5 
 c = -1.98541617279999999695 ; periodS = 5 
 c = -1.98541604719999999695 ; periodS = 5 
 c = -1.98541592159999999694 ; periodS = 5 
 c = -1.98541579599999999694 ; periodS = 5 
 c = -1.98541567039999999693 ; periodS = 5 
 c = -1.98541554479999999693 ; periodS = 5 
 c = -1.98541541919999999692 ; periodS = 5 
 c = -1.98541529359999999692 ; periodS = 5 
 c = -1.98541516799999999692 ; periodS = 5 
 c = -1.98541504239999999691 ; periodS = 5 
 c = -1.98541491679999999691 ; periodS = 5 
 c = -1.98541479119999999690 ; periodS = 5 
 c = -1.98541466559999999690 ; periodS = 5 
 c = -1.98541453999999999689 ; periodS = 5 
 c = -1.98541441439999999689 ; periodS = 5 
 c = -1.98541428879999999689 ; periodS = 5 
 c = -1.98541416319999999688 ; periodS = 5 
 c = -1.98541403759999999688 ; periodS = 5 
 c = -1.98541391199999999687 ; periodS = 5 
 c = -1.98541378639999999687 ; periodS = 5 
 c = -1.98541366079999999686 ; periodS = 5 
 c = -1.98541353519999999686 ; periodS = 5 
 c = -1.98541340959999999686 ; periodS = 5 
 c = -1.98541328399999999685 ; periodS = 5 
 c = -1.98541315839999999685 ; periodS = 5 
 c = -1.98541303279999999684 ; periodS = 5 
 c = -1.98541290719999999684 ; periodS = 5 
 c = -1.98541278159999999683 ; periodS = 5 
 c = -1.98541265599999999683 ; periodS = 5 
 c = -1.98541253039999999682 ; periodS = 5 
 c = -1.98541240479999999682 ; periodS = 5 
 c = -1.98541227919999999682 ; periodS = 5 
 c = -1.98541215359999999681 ; periodS = 5 
 c = -1.98541202799999999681 ; periodS = 5 
 c = -1.98541190239999999680 ; periodS = 5 
 c = -1.98541177679999999680 ; periodS = 5 
 c = -1.98541165119999999679 ; periodS = 5 
 c = -1.98541152559999999679 ; periodS = 5 
 c = -1.98541139999999999679 ; periodS = 5 
 c = -1.98541127439999999678 ; periodS = 5 
 c = -1.98541114879999999678 ; periodS = 5 
 c = -1.98541102319999999677 ; periodS = 5 
 c = -1.98541089759999999677 ; periodS = 5 
 c = -1.98541077199999999676 ; periodS = 5 
 c = -1.98541064639999999676 ; periodS = 5 
 c = -1.98541052079999999676 ; periodS = 5 
 c = -1.98541039519999999675 ; periodS = 5 
 c = -1.98541026959999999675 ; periodS = 5 
 c = -1.98541014399999999674 ; periodS = 5 
 c = -1.98541001839999999674 ; periodS = 5 
 c = -1.98540989279999999673 ; periodS = 5 
 c = -1.98540976719999999673 ; periodS = 5 
 c = -1.98540964159999999672 ; periodS = 0 
 c = -1.98540951599999999672 ; periodS = 0 
 c = -1.98540939039999999672 ; periodS = 0 
 c = -1.98540926479999999671 ; periodS = 0 
 c = -1.98540913919999999671 ; periodS = 0 
 c = -1.98540901359999999670 ; periodS = 45715 
 c = -1.98540888799999999670 ; periodS = 0 
 c = -1.98540876239999999669 ; periodS = 0 
 c = -1.98540863679999999669 ; periodS = 0 
 c = -1.98540851119999999669 ; periodS = 0 
 c = -1.98540838559999999668 ; periodS = 0 
 c = -1.98540825999999999668 ; periodS = 0 
 c = -1.98540813439999999667 ; periodS = 0 
 c = -1.98540800879999999667 ; periodS = 0 
 c = -1.98540788319999999666 ; periodS = 0 
 c = -1.98540775759999999666 ; periodS = 0 
 c = -1.98540763199999999666 ; periodS = 0 
 c = -1.98540750639999999665 ; periodS = 0 
 c = -1.98540738079999999665 ; periodS = 0 
 c = -1.98540725519999999664 ; periodS = 0 
 c = -1.98540712959999999664 ; periodS = 0 
 c = -1.98540700399999999663 ; periodS = 0 
 c = -1.98540687839999999663 ; periodS = 0 
 c = -1.98540675279999999662 ; periodS = 0 
 c = -1.98540662719999999662 ; periodS = 0 
 c = -1.98540650159999999662 ; periodS = 0 
 c = -1.98540637599999999661 ; periodS = 0 
 c = -1.98540625039999999661 ; periodS = 0 
 c = -1.98540612479999999660 ; periodS = 0 
 c = -1.98540599919999999660 ; periodS = 0 
 c = -1.98540587359999999659 ; periodS = 0 
 c = -1.98540574799999999659 ; periodS = 0 
 c = -1.98540562239999999659 ; periodS = 0 
 c = -1.98540549679999999658 ; periodS = 0 
 c = -1.98540537119999999658 ; periodS = 0 
 c = -1.98540524559999999657 ; periodS = 0 
 c = -1.98540511999999999657 ; periodS = 0 
 c = -1.98540499439999999656 ; periodS = 0 
 c = -1.98540486879999999656 ; periodS = 0 
 c = -1.98540474319999999655 ; periodS = 0 
 c = -1.98540461759999999655 ; periodS = 0 
 c = -1.98540449199999999655 ; periodS = 0 
 c = -1.98540436639999999654 ; periodS = 0 
 c = -1.98540424079999999654 ; periodS = 0 
 c = -1.98540411519999999653 ; periodS = 0 
 c = -1.98540398959999999653 ; periodS = 0 
 c = -1.98540386399999999652 ; periodS = 0 
 c = -1.98540373839999999652 ; periodS = 0 
 c = -1.98540361279999999652 ; periodS = 0 
 c = -1.98540348719999999651 ; periodS = 0 
 c = -1.98540336159999999651 ; periodS = 0 
 c = -1.98540323599999999650 ; periodS = 0 
 c = -1.98540311039999999650 ; periodS = 0 
 c = -1.98540298479999999649 ; periodS = 0 
 c = -1.98540285919999999649 ; periodS = 0 
 c = -1.98540273359999999649 ; periodS = 0 
 c = -1.98540260799999999648 ; periodS = 0 
 c = -1.98540248239999999648 ; periodS = 0 
 c = -1.98540235679999999647 ; periodS = 0 
 c = -1.98540223119999999647 ; periodS = 0 
 c = -1.98540210559999999646 ; periodS = 0 
 c = -1.98540197999999999646 ; periodS = 0 
 c = -1.98540185439999999645 ; periodS = 0 
 c = -1.98540172879999999645 ; periodS = 0 
 c = -1.98540160319999999645 ; periodS = 0 
 c = -1.98540147759999999644 ; periodS = 0 
 c = -1.98540135199999999644 ; periodS = 0 
 c = -1.98540122639999999643 ; periodS = 0 
 c = -1.98540110079999999643 ; periodS = 0 
 c = -1.98540097519999999642 ; periodS = 0 
 c = -1.98540084959999999642 ; periodS = 0 
 c = -1.98540072399999999642 ; periodS = 0 
 c = -1.98540059839999999641 ; periodS = 0 
 c = -1.98540047279999999641 ; periodS = 0 
 c = -1.98540034719999999640 ; periodS = 0 
 c = -1.98540022159999999640 ; periodS = 0 
 c = -1.98540009599999999639 ; periodS = 0 
 c = -1.98539997039999999639 ; periodS = 0 
 c = -1.98539984479999999639 ; periodS = 0 
 c = -1.98539971919999999638 ; periodS = 0 
 c = -1.98539959359999999638 ; periodS = 0 
 c = -1.98539946799999999637 ; periodS = 0 
 c = -1.98539934239999999637 ; periodS = 0 
 c = -1.98539921679999999636 ; periodS = 0 
 c = -1.98539909119999999636 ; periodS = 0 
 c = -1.98539896559999999635 ; periodS = 0 
 c = -1.98539883999999999635 ; periodS = 0 
 c = -1.98539871439999999635 ; periodS = 0 
 c = -1.98539858879999999634 ; periodS = 0 
 c = -1.98539846319999999634 ; periodS = 0 
 c = -1.98539833759999999633 ; periodS = 0 
 c = -1.98539821199999999633 ; periodS = 0 
 c = -1.98539808639999999632 ; periodS = 0 
 c = -1.98539796079999999632 ; periodS = 0 
 c = -1.98539783519999999632 ; periodS = 0 
 c = -1.98539770959999999631 ; periodS = 0 
 c = -1.98539758399999999631 ; periodS = 0 
 c = -1.98539745839999999630 ; periodS = 0 
 c = -1.98539733279999999630 ; periodS = 0 
 c = -1.98539720719999999629 ; periodS = 0 
 c = -1.98539708159999999629 ; periodS = 0 
 c = -1.98539695599999999628 ; periodS = 0 
 c = -1.98539683039999999628 ; periodS = 0 
 c = -1.98539670479999999628 ; periodS = 0 
 c = -1.98539657919999999627 ; periodS = 0 
 c = -1.98539645359999999627 ; periodS = 0 
 c = -1.98539632799999999626 ; periodS = 0 
 c = -1.98539620239999999626 ; periodS = 0 
 c = -1.98539607679999999625 ; periodS = 0 
 c = -1.98539595119999999625 ; periodS = 0 
 c = -1.98539582559999999625 ; periodS = 0 
 c = -1.98539569999999999624 ; periodS = 0 
 c = -1.98539557439999999624 ; periodS = 0 
 c = -1.98539544879999999623 ; periodS = 0 
 c = -1.98539532319999999623 ; periodS = 0 
 c = -1.98539519759999999622 ; periodS = 0 
 c = -1.98539507199999999622 ; periodS = 0 
 c = -1.98539494639999999622 ; periodS = 0 
 c = -1.98539482079999999621 ; periodS = 0 
 c = -1.98539469519999999621 ; periodS = 0 
 c = -1.98539456959999999620 ; periodS = 0 
 c = -1.98539444399999999620 ; periodS = 0 
 c = -1.98539431839999999619 ; periodS = 0 
 c = -1.98539419279999999619 ; periodS = 0 
 c = -1.98539406719999999618 ; periodS = 0 
 c = -1.98539394159999999618 ; periodS = 0 
 c = -1.98539381599999999618 ; periodS = 0 
 c = -1.98539369039999999617 ; periodS = 0 
 c = -1.98539356479999999617 ; periodS = 0 
 c = -1.98539343919999999616 ; periodS = 0 
 c = -1.98539331359999999616 ; periodS = 0 
 c = -1.98539318799999999615 ; periodS = 0 
 c = -1.98539306239999999615 ; periodS = 0 
 c = -1.98539293679999999615 ; periodS = 0 
 c = -1.98539281119999999614 ; periodS = 0 
 c = -1.98539268559999999614 ; periodS = 0 
 c = -1.98539255999999999613 ; periodS = 0 
 c = -1.98539243439999999613 ; periodS = 0 
 c = -1.98539230879999999612 ; periodS = 0 
 c = -1.98539218319999999612 ; periodS = 0 
 c = -1.98539205759999999612 ; periodS = 0 
 c = -1.98539193199999999611 ; periodS = 0 
 c = -1.98539180639999999611 ; periodS = 0 
 c = -1.98539168079999999610 ; periodS = 0 
 c = -1.98539155519999999610 ; periodS = 0 
 c = -1.98539142959999999609 ; periodS = 0 
 c = -1.98539130399999999609 ; periodS = 0 
 c = -1.98539117839999999608 ; periodS = 0 
 c = -1.98539105279999999608 ; periodS = 0 
 c = -1.98539092719999999608 ; periodS = 0 
 c = -1.98539080159999999607 ; periodS = 0 
 c = -1.98539067599999999607 ; periodS = 0 
 c = -1.98539055039999999606 ; periodS = 0 
 c = -1.98539042479999999606 ; periodS = 0 
 c = -1.98539029919999999605 ; periodS = 0 
 c = -1.98539017359999999605 ; periodS = 0 
 c = -1.98539004799999999605 ; periodS = 0 
 c = -1.98538992239999999604 ; periodS = 0 
 c = -1.98538979679999999604 ; periodS = 0 
 c = -1.98538967119999999603 ; periodS = 0 
 c = -1.98538954559999999603 ; periodS = 0 
 c = -1.98538941999999999602 ; periodS = 0 
 c = -1.98538929439999999602 ; periodS = 0 
 c = -1.98538916879999999601 ; periodS = 0 
 c = -1.98538904319999999601 ; periodS = 0 
 c = -1.98538891759999999601 ; periodS = 0 
 c = -1.98538879199999999600 ; periodS = 0 
 c = -1.98538866639999999600 ; periodS = 0 
 c = -1.98538854079999999599 ; periodS = 0 
 c = -1.98538841519999999599 ; periodS = 0 
 c = -1.98538828959999999598 ; periodS = 0 
 c = -1.98538816399999999598 ; periodS = 0 
 c = -1.98538803839999999598 ; periodS = 0 
 c = -1.98538791279999999597 ; periodS = 0 
 c = -1.98538778719999999597 ; periodS = 0 
 c = -1.98538766159999999596 ; periodS = 0 
 c = -1.98538753599999999596 ; periodS = 0 
 c = -1.98538741039999999595 ; periodS = 0 
 c = -1.98538728479999999595 ; periodS = 0 
 c = -1.98538715919999999595 ; periodS = 0 
 c = -1.98538703359999999594 ; periodS = 0 
 c = -1.98538690799999999594 ; periodS = 0 
 c = -1.98538678239999999593 ; periodS = 0 
 c = -1.98538665679999999593 ; periodS = 0 
 c = -1.98538653119999999592 ; periodS = 0 
 c = -1.98538640559999999592 ; periodS = 0 
 c = -1.98538627999999999591 ; periodS = 0 
 c = -1.98538615439999999591 ; periodS = 0 
 c = -1.98538602879999999591 ; periodS = 0 
 c = -1.98538590319999999590 ; periodS = 0 
 c = -1.98538577759999999590 ; periodS = 0 
 c = -1.98538565199999999589 ; periodS = 0 
 c = -1.98538552639999999589 ; periodS = 0 
 c = -1.98538540079999999588 ; periodS = 0 
 c = -1.98538527519999999588 ; periodS = 0 
 c = -1.98538514959999999588 ; periodS = 0 
 c = -1.98538502399999999587 ; periodS = 0 
 c = -1.98538489839999999587 ; periodS = 0 
 c = -1.98538477279999999586 ; periodS = 0 
 c = -1.98538464719999999586 ; periodS = 0 
 c = -1.98538452159999999585 ; periodS = 0 
 c = -1.98538439599999999585 ; periodS = 0 
 c = -1.98538427039999999585 ; periodS = 0 
 c = -1.98538414479999999584 ; periodS = 0 
 c = -1.98538401919999999584 ; periodS = 0 
 c = -1.98538389359999999583 ; periodS = 0 
 c = -1.98538376799999999583 ; periodS = 0 
 c = -1.98538364239999999582 ; periodS = 0 
 c = -1.98538351679999999582 ; periodS = 0 
 c = -1.98538339119999999581 ; periodS = 0 
 c = -1.98538326559999999581 ; periodS = 0 
 c = -1.98538313999999999581 ; periodS = 0 
 c = -1.98538301439999999580 ; periodS = 0 
 c = -1.98538288879999999580 ; periodS = 0 
 c = -1.98538276319999999579 ; periodS = 0 
 c = -1.98538263759999999579 ; periodS = 0 
 c = -1.98538251199999999578 ; periodS = 0 
 c = -1.98538238639999999578 ; periodS = 0 
 c = -1.98538226079999999578 ; periodS = 0 
 c = -1.98538213519999999577 ; periodS = 0 
 c = -1.98538200959999999577 ; periodS = 0 
 c = -1.98538188399999999576 ; periodS = 0 
 c = -1.98538175839999999576 ; periodS = 0 
 c = -1.98538163279999999575 ; periodS = 0 
 c = -1.98538150719999999575 ; periodS = 0 
 c = -1.98538138159999999575 ; periodS = 0 
 c = -1.98538125599999999574 ; periodS = 0 
 c = -1.98538113039999999574 ; periodS = 0 
 c = -1.98538100479999999573 ; periodS = 0 
 c = -1.98538087919999999573 ; periodS = 0 
 c = -1.98538075359999999572 ; periodS = 0 
 c = -1.98538062799999999572 ; periodS = 0 
 c = -1.98538050239999999571 ; periodS = 0 
 c = -1.98538037679999999571 ; periodS = 0 
 c = -1.98538025119999999571 ; periodS = 0 
 c = -1.98538012559999999570 ; periodS = 0 
