# Cx = -1.3680974296 Cy = 0.0000000000 
# Zx      Zy 
-1.3680974296 0.0000000000 	0.5035931472 0.0000000000 	
-1.1144913717 0.0000000000 	-0.1260064121 0.0000000000 	
-1.3522198137 0.0000000000 	0.4604009949 0.0000000000 	
-1.1561283534 0.0000000000 	-0.0314646600 0.0000000000 	
-1.3671074047 0.0000000000 	0.5008852265 0.0000000000 	
-1.1172114194 0.0000000000 	-0.1199360739 0.0000000000 	
-1.3537127677 0.0000000000 	0.4644408280 0.0000000000 	
-1.1523921468 0.0000000000 	-0.0400897694 0.0000000000 	
-1.3664902399 0.0000000000 	0.4991981463 0.0000000000 	
-1.1188986403 0.0000000000 	-0.1161632623 0.0000000000 	
#  diff  
0.5830165455 	0.5121161761 	
# average diff = 0.5475663608 
