IterationMax = 1000 
EscapeRadius = 33.000000 ER2 = 1089.000000 

C plane : 
dWidth  = 3.000000 ; dHeight = 3.000000 
PixelWidth = 0.003000 ; PixelHeight = 0.003000 
 CxMin = -2.250000 
 CxMax = 0.750000 
 CyMin = -1.500000 
 CyMax = 1.500000 
 center of image : C = -0.750000 ; 0.000000 

g= 1.000000 used for  distance = pow( g*distance, 0.25 ); 
