# Cx = -1.3680974296 Cy = 0.0000000000 
# Zx      Zy 
-1.3680974296 0.0000000000 	0.5035931472 0.0000000000 	-1.1144913717 0.0000000000 	-0.1260064121 0.0000000000 	-1.3522198137 0.0000000000 	0.4604009949 0.0000000000 	-1.1561283534 0.0000000000 	-0.0314646600 0.0000000000 	-1.3671074047 0.0000000000 	0.5008852265 0.0000000000 	-1.1172114194 0.0000000000 	-0.1199360739 0.0000000000 	
-1.3537127677 0.0000000000 	0.4644408280 0.0000000000 	-1.1523921468 0.0000000000 	-0.0400897694 0.0000000000 	-1.3664902399 0.0000000000 	0.4991981463 0.0000000000 	-1.1188986403 0.0000000000 	-0.1161632623 0.0000000000 	-1.3546035260 0.0000000000 	0.4668532832 0.0000000000 	-1.1501454415 0.0000000000 	-0.0452628929 0.0000000000 	
-1.3660487001 0.0000000000 	0.4979916214 0.0000000000 	-1.1201017745 0.0000000000 	-0.1134694442 0.0000000000 	-1.3552221148 0.0000000000 	0.4685295508 0.0000000000 	-1.1485774895 0.0000000000 	-0.0488671801 0.0000000000 	-1.3657094283 0.0000000000 	0.4970648129 0.0000000000 	-1.1210240013 0.0000000000 	-0.1114026180 0.0000000000 	
-1.3556868863 0.0000000000 	0.4697895040 0.0000000000 	-1.1473952515 0.0000000000 	-0.0515815665 0.0000000000 	-1.3654367716 0.0000000000 	0.4963201476 0.0000000000 	-1.1217637407 0.0000000000 	-0.1097435396 0.0000000000 	-1.3560537851 0.0000000000 	0.4707844384 0.0000000000 	-1.1464594421 0.0000000000 	-0.0537281772 0.0000000000 	
-1.3652107125 0.0000000000 	0.4957028600 0.0000000000 	-1.1223761041 0.0000000000 	-0.1083693105 0.0000000000 	-1.3563535221 0.0000000000 	0.4715974473 0.0000000000 	-1.1456932772 0.0000000000 	-0.0554843441 0.0000000000 	-1.3650189171 0.0000000000 	0.4951792145 0.0000000000 	-1.1228949751 0.0000000000 	-0.1072043045 0.0000000000 	
-1.3566046666 0.0000000000 	0.4722787920 0.0000000000 	-1.1450501722 0.0000000000 	-0.0569575327 0.0000000000 	-1.3648532690 0.0000000000 	0.4947270164 0.0000000000 	-1.1233426088 0.0000000000 	-0.1061988128 0.0000000000 	-1.3568192417 0.0000000000 	0.4728610251 0.0000000000 	-1.1444998805 0.0000000000 	-0.0582174532 0.0000000000 	
-1.3647081577 0.0000000000 	0.4943309261 0.0000000000 	-1.1237343650 0.0000000000 	-0.1053185064 0.0000000000 	-1.3570054418 0.0000000000 	0.4733663394 0.0000000000 	-1.1440217383 0.0000000000 	-0.0593116919 0.0000000000 	-1.3645795528 0.0000000000 	0.4939799262 0.0000000000 	-1.1240812620 0.0000000000 	-0.1045387459 0.0000000000 	
-1.3571690801 0.0000000000 	0.4738104826 0.0000000000 	-1.1436010562 0.0000000000 	-0.0602740539 0.0000000000 	-1.3644644680 0.0000000000 	0.4936658548 0.0000000000 	-1.1243914533 0.0000000000 	-0.1038412892 0.0000000000 	-1.3573144162 0.0000000000 	0.4742049949 0.0000000000 	-1.1432270524 0.0000000000 	-0.0611293363 0.0000000000 	
-1.3643606338 0.0000000000 	0.4933825095 0.0000000000 	-1.1246711289 0.0000000000 	-0.1032122815 0.0000000000 	-1.3574446545 0.0000000000 	0.4745585605 0.0000000000 	-1.1428916022 0.0000000000 	-0.0618962151 0.0000000000 	-1.3642662881 0.0000000000 	0.4931250753 0.0000000000 	-1.1249250897 0.0000000000 	-0.1026409722 0.0000000000 	
-1.3575622604 0.0000000000 	0.4748778612 0.0000000000 	-1.1425884464 0.0000000000 	-0.0625890716 0.0000000000 	-1.3641800377 0.0000000000 	0.4928897456 0.0000000000 	-1.1251571282 0.0000000000 	-0.1021188664 0.0000000000 	-1.3576691667 0.0000000000 	0.4751681366 0.0000000000 	-1.1423126715 0.0000000000 	-0.0632191901 0.0000000000 	
#  diff  
0.0379770681 	0.0363813384 	0.0352316477 	0.0339608286 	0.0330164663 	0.0319729924 	0.0311785890 	0.0303016433 	0.0296208469 	0.0288702512 	0.0282780398 	0.0276260264 	
# average diff = 0.0320346448 
